{"data":{"posts":{"totalCount":6,"pageInfo":{"totalPages":2,"currentPage":2,"isFirst":false,"isLast":true},"edges":[{"node":{"title":"Start mojego bloga i  pierwsze posty.","date":"2 July, 2019","description":"Trudno powiedzieć co mnie skłoniło do blogowania? Pewnie to że od zawsze lubiłem wyrażać swoje myśli, pragnienia i nadzieje pisząc. Pisanie swoich dzienników z podóży zawsze sprawiało mi frajdę, zawsze będąc daleko od domu spisywałem każdy pojedynczy dzień jaki przeżyłem","image":{"type":"image","mimeType":"image/jpeg","src":"/assets/static/sergei-akulich-457851-unsplash.09b17d9.50585b6.jpg","size":{"width":2560,"height":1440},"sizes":"(max-width: 2560px) 100vw, 2560px","srcset":["/assets/static/sergei-akulich-457851-unsplash.1b91758.50585b6.jpg 480w","/assets/static/sergei-akulich-457851-unsplash.3df3210.50585b6.jpg 1024w","/assets/static/sergei-akulich-457851-unsplash.0b85c65.50585b6.jpg 1920w","/assets/static/sergei-akulich-457851-unsplash.09b17d9.50585b6.jpg 2560w"],"dataUri":"data:image/svg+xml,%3csvg fill='none' viewBox='0 0 2560 1440' xmlns='http://www.w3.org/2000/svg' xmlns:xlink='http://www.w3.org/1999/xlink'%3e%3cdefs%3e%3cfilter id='__svg-blur-11'%3e%3cfeGaussianBlur in='SourceGraphic' stdDeviation='40'/%3e%3c/filter%3e%3c/defs%3e%3cimage x='0' y='0' filter='url(%23__svg-blur-11)' width='2560' height='1440' xlink:href='data:image/jpeg%3bbase64%2c/9j/2wBDAAYEBQYFBAYGBQYHBwYIChAKCgkJChQODwwQFxQYGBcUFhYaHSUfGhsjHBYWICwgIyYnKSopGR8tMC0oMCUoKSj/2wBDAQcHBwoIChMKChMoGhYaKCgoKCgoKCgoKCgoKCgoKCgoKCgoKCgoKCgoKCgoKCgoKCgoKCgoKCgoKCgoKCgoKCj/wAARCAAkAEADASIAAhEBAxEB/8QAHAAAAQUBAQEAAAAAAAAAAAAABQADBAYHCAIB/8QALhAAAgEDAwMCBgAHAAAAAAAAAQIDAAQRBRIhBjFBE1EHFCJhcYEjMkKRscHh/8QAGQEAAgMBAAAAAAAAAAAAAAAAAQMAAgQF/8QAHxEAAgICAgMBAAAAAAAAAAAAAQIAAxExEiEEIjJB/9oADAMBAAIRAxEAPwDn/Rb%2b308wSfJxz3aSo8cjSnaNrZwyec/kV2J0jfjWtEs7/bGjzIGdEcPsPsSPP2rjbTIXvLq2tbO0kuLlnIjjTcS5P2B/xXRl1rV30V8IoI2tLaw1FUEXpxEfSWbvjy2Mkn3pV9TPjjKUWqhPLU123MckaPGwZGGQR2IqSuKxX4QdbT3mltYOVuBaINqsQrhckYB8%2bO9WzUurGm3w215bWDxEeqxlVm57AZHFZj49wbAmkXUsvLM0RQM4803DLDcwJNA6yQuMq6nIIrFrnr2fQUWG3uZZ4o775aX1Ru7YZtpPIzu816bru3g%2bG%2bn29lOIb1bj03AbBCt6hHHPtS7kur0MxlRqs/cTYZgpHGKpXXnUNnotjJbSyyR3tzbTvb7B5Rc9/B54qoaR8W9Ng6bsBIWur2HZDcJna20A5Ye5wB/es3%2bJfWh6g1mzu4FMUa2bxrx5JbP%2bhV6fGtdvcYEXd5FSL6HJmaafNNA%2b%2b3MqkDlk4NGLq%2bvtQsJFl%2bauZWkVmkfc5AAPHPbvQq0tp5GVUOzPnPijmmQ3sV1GV3zqHAPoP9TfjzXRDAHc5DHvqeelEupNUt4bWN3nkYqqK%2bwngnuSPano9Q9LVSPR5YBWy/8AUCex8f8AKIa9Dd6hMLhdLuLN2wCoiLBiO7Z8E1EutL1KO2y9uzA/y7wMr%2bhTA8qVOTiRLq4neAyTTllM5cknJ3MPJ8nAoXe3UksSIZHzEAME8dzRKy0vU3mKJalmf3ITj90I1GyubO5CXCBWbtghhn247H7UCeUKAjcc0i4QT7HCZcnLsOR%2b/aptwEOSjbh9%2b/4xQSIFJxvUg57e9TJGSNcwsd/cg8858VA2BBYmWyJEhkdCGVj%2bKsGnXs8UCSKwJxkZGcfilSoACaB0epe9OnkvFikndiGAbZk7RX27/hS/T2Ldj470qVRNxr/Ij0hSXTw8kUbEOOGGR2%2b9Cb62hlIdo1w3dQOKVKmpuJu%2bZQtchW1vmjiLBcDGT2oa7HtnilSpbblVHQn/2Q==' /%3e%3c/svg%3e"},"path":"/blog/2019-07-02-moj-pierwszy-post"}}]}},"context":{}}