{"data":{"posts":{"totalCount":7,"pageInfo":{"totalPages":2,"currentPage":1,"isFirst":true,"isLast":false},"edges":[{"node":{"title":"Kilka słów o Slots w Vue","date":"24 lipca, 2019","description":"Gdy zaczynałem naukę Vue,  sloty wydawały mi się trudne w użyciu i nie  do końca wiedziałem w jaki sposób mógłbym ich użyć?  Szybko więc się odbiłem od tematu i  pisałem kod nawet nie rozważając ich użycia. Zdecydowanie był to błąd i dopiero po  jakimś czasie zrozumiałem jak ogromny potencjał tkwi w wykorzystaniu slotów.  Podzielę się trochę wiedzą na ich temat oraz tym jak z nich korzystam. ","image":{"type":"image","mimeType":"image/jpeg","src":"/assets/static/storage-1209606_1920.0b85c65.baeabc7.jpg","size":{"width":1920,"height":1276},"sizes":"(max-width: 1920px) 100vw, 1920px","srcset":["/assets/static/storage-1209606_1920.1b91758.baeabc7.jpg 480w","/assets/static/storage-1209606_1920.3df3210.baeabc7.jpg 1024w","/assets/static/storage-1209606_1920.0b85c65.baeabc7.jpg 1920w"],"dataUri":"data:image/svg+xml,%3csvg fill='none' viewBox='0 0 1920 1276' xmlns='http://www.w3.org/2000/svg' xmlns:xlink='http://www.w3.org/1999/xlink'%3e%3cdefs%3e%3cfilter id='__svg-blur-1'%3e%3cfeGaussianBlur in='SourceGraphic' stdDeviation='40'/%3e%3c/filter%3e%3c/defs%3e%3cimage x='0' y='0' filter='url(%23__svg-blur-1)' width='1920' height='1276' xlink:href='data:image/jpeg%3bbase64%2c/9j/2wBDAAYEBQYFBAYGBQYHBwYIChAKCgkJChQODwwQFxQYGBcUFhYaHSUfGhsjHBYWICwgIyYnKSopGR8tMC0oMCUoKSj/2wBDAQcHBwoIChMKChMoGhYaKCgoKCgoKCgoKCgoKCgoKCgoKCgoKCgoKCgoKCgoKCgoKCgoKCgoKCgoKCgoKCgoKCj/wAARCAArAEADASIAAhEBAxEB/8QAGwAAAgMBAQEAAAAAAAAAAAAABAUCBgcDAQj/xAAzEAABBAEDAQYGAAUFAAAAAAABAgMEBREABiESEyIxQXGBBxQyUWGRFiMkM7E0QlTB0f/EABgBAAMBAQAAAAAAAAAAAAAAAAECAwAE/8QAIhEAAgIBBAIDAQAAAAAAAAAAAQIAESEDBBIxUZEiQWHw/9oADAMBAAIRAxEAPwD12npA83GrL0PqcUEAqZISM%2bZUNWJ/bNpGhIaaoYUsoT/qEycE/nHGklK7U2l2wh%2bvbroqkqx8o4chXGCSeOPTVg3BWV6UKzu91/oHcjrUXfbuH/I1JdppJ0vckd5qOCeXULrGBAoEosXJlW8M57JntAfTg6jtORCkzpUJuW5P6x1J%2bda6AT9uP/NO6aXuGLRRl1kFicytpKk/1HKOOR08f51CtsLBUiS7uWubaSOhICo4QACTnCvPy89dKoBgSJ1WJFmQaizKOeVvRqaFBX9fYvdCz9j3sanbIarJKZzbV7MURwlsdbRz%2bdB3kfYK1FxanFyFeKYjqlnP5ySnVirBKkUrKKCxREWpsLSJTHalKT4YwQPL7HRoVMGNkQZSXrGuTKqPk4D/AE94SmO8n3zoR9yotUor7WwjyZ/T4RHlJCyPTgagzQ7rYsnJlpZMWEcIwpJc6UYzzlKhjGjrSNRVsRNi9RLU8U935CMVE%2b6OAPydGayfr3M82e7W3dhORuKMzKW8UqD30KRxjjpxgaNv6Ta1c24K65Wl8A4YQkSBn7EjGPc6C27sap3BSRpEKZIizi2kOoWrtELV98a52mwb%2btYW5HbZnMoBJ7FWFADz6T/1pbz4kGDcMjl/e5Z6H%2bK4W3IrtPHhyW3GwrKXApSOPDoOBn96TuW94zdwnb1UxJQ6FBEhBS2OD4DHTrls/eyaOqjJlx5WFtgoR0YCh6nA10ufiRa2cZ5lptiFHUCnpQe0WpOPNRGB7D30bz5hagoJJX8l8mubUfgiVbMwGCR9WOlZ9Onk6rjG4oDl1BhURfjx%2bnsu2fHVgAEjCc5PudG7Yqdv31FEROr2kyQylPbIJS4ePNQPPvrx34aJjTUSquzWnsySG30ZGMfcaF13KEM1FKnLcOz9y2iSs3jVg2fpbXllI9EjKdWKuXY1RKZMdxMZDaMrSQpKcIAPIPAyDpVC3BMjmZDrWEW8qIgKWmM8AnnyyfP8DOsx33uvcc8Os26XoUf/AIyEFCPc%2bKvc63IdCErx%2beYk21u2xoUJZ7FAfQMEO5GPbx0wst3WtshQnTlqbI/tI7iP0PH31rG66KstIJenwmXXkp4WRhX7Gvne9SIlg%2bzHyhtKsAZJx%2b9BDbcWkdwp005JgGb5sC3YsNvxYNkht9oNhIC0hQx9sHR9t8O9vWLa1NIchKPPUwvAHseNZD8O5b4aj4dV4ac7yvLJcpEMzHRGI5Qk9IPrjTsAKIjI9qQ%2bQJYaaHKrLxdTSWEexLLHX1LWEAEcdJIyM6Sb2nbzUFt3EeUxBH%2byMMtH1Kck%2b%2blewnnG9ynoUU4QPD11vsZRcjpK%2b9keelKk9mNpsGFLiYD8NLwRLWSpLnScpTjw8jrcosyLZRv57bTgUOQoAg6Bv9vVMlhbz1fHLwGe0SnpVn1GNUZiQ9DW63GdWhCM4Gc4/esaIqo6K2n0Z//Z' /%3e%3c/svg%3e"},"path":"/blog/2019-07-24-kilka-slow-o-slots-w-vue"}},{"node":{"title":"Nowe Wyzwanie","date":"20 lipca, 2019","description":"18 lipca 2019 roku odebrałem telefon i to co usłyszałem podnosząc słuchawkę, sprawiło, że czułem czystą radość, a zarazem przerażenie. Zostałem zatrudniony w pewnym niewielkim polskim oddziale firmy zagranicznej jako programista. Sprawiło to że nie raz pojawił się uśmiech na mojej twarzy tamtego dnia. Pomyślałem więc że będzie to unikalny post w którym podzielę się przemyśleniami na temat rekrutacji, którą udało mi się przejść pomyślnie. Zdecydowanie będzie to post bardzo osobisty.","image":{"type":"image","mimeType":"image/jpeg","src":"/assets/static/balloons-1615032_1920.0b85c65.b42e2c9.jpg","size":{"width":1920,"height":1080},"sizes":"(max-width: 1920px) 100vw, 1920px","srcset":["/assets/static/balloons-1615032_1920.1b91758.b42e2c9.jpg 480w","/assets/static/balloons-1615032_1920.3df3210.b42e2c9.jpg 1024w","/assets/static/balloons-1615032_1920.0b85c65.b42e2c9.jpg 1920w"],"dataUri":"data:image/svg+xml,%3csvg fill='none' viewBox='0 0 1920 1080' xmlns='http://www.w3.org/2000/svg' xmlns:xlink='http://www.w3.org/1999/xlink'%3e%3cdefs%3e%3cfilter id='__svg-blur-9'%3e%3cfeGaussianBlur in='SourceGraphic' stdDeviation='40'/%3e%3c/filter%3e%3c/defs%3e%3cimage x='0' y='0' filter='url(%23__svg-blur-9)' width='1920' height='1080' xlink:href='data:image/jpeg%3bbase64%2c/9j/2wBDAAYEBQYFBAYGBQYHBwYIChAKCgkJChQODwwQFxQYGBcUFhYaHSUfGhsjHBYWICwgIyYnKSopGR8tMC0oMCUoKSj/2wBDAQcHBwoIChMKChMoGhYaKCgoKCgoKCgoKCgoKCgoKCgoKCgoKCgoKCgoKCgoKCgoKCgoKCgoKCgoKCgoKCgoKCj/wAARCAAkAEADASIAAhEBAxEB/8QAGwAAAgMAAwAAAAAAAAAAAAAAAAYEBQcBAwj/xAAvEAABAwMDAgUCBgMAAAAAAAABAgMEAAURBhIhIjETFEFRYTKhByNCgZHBFnGx/8QAGQEBAQEAAwAAAAAAAAAAAAAABQQCAQMH/8QAKBEAAQMDAwIGAwAAAAAAAAAAAQACAwQRIRIxQQVxExQiMmGR0eHw/9oADAMBAAIRAxEAPwDHo1qkSVtpjsOqyPRPetRsGlY0aM2lxPiO91Lx9qu4cePb7YuU8PDZZb6iB6Co0e/W6btis%2bYZW8MB5SdoQc9jz9xSM08NO0OlNgg6ajreph3lmEhu9lKZas7dxatxSkS8ZSnaeeM4z74qU1o6CxN85HaIdII5PGD7VTlNtsN1TIv0h5uegFSC2CoEDO1RVyM%2bn8ZpO0rqedAlqeRJU4l5xKVNvLJBOfqJ9OP%2b0QepCR7o3t9Oc7Ai24PI7J%2bLoEdRS%2bPRvdqa1uppyS4mxAtsB83WruaQiz0pbkstLQ%2bCFKA5H7%2b9drmlbfBQIzMdCEITtGBjP%2b/enexOsvxtxbKDkdGd3OM8e9QdQSkQZTPmWUGO6k7156m%2btKcn3A3DNZpaiKSMSxe0qHyTidB3Cy3VmjWJdvWtpG2S2Og5%2b1Yrc4ZYkLbWMLScGvWN3gr8JXghJCeCPWsTvml1q8y9KQQ4t5WVjuM9jSkMnCgIMZIcVpNpgh%2bO3EkkOMLT4biV/qGPWqDUzWnNMOsQ029x11WXh%2barp9Bkk89u1PUF21vpCmpIUAQeUkf1XF3sFkvD7Ts4MPLQeCpWP2PuPijW19HN6aghze4SVIZqN%2bqJxHYkJO1FbIl7jIdly0xJy2vy0OP%2bGlzI4G39XpyKXbHoSZc3kiU0GEspwpSE53KGPb3/AKp%2b1PoSHfLkmcLmWXktpQEJKSklP0/IHwKZtGWhVjgLZekNOuOObyUq4HAGBnv2okMLWvpYjaNwwb302PF9kvK6HQypglLZOWgWvffI/vtT9OQn4IKHUYQlAAKlbjnjsaTfxRdvNukuTmloXbHWDGAIBDZWCFAj54IPxWkpcRjlxH81mn4tasjQNNXOBNhvokOtjy%2b8bm3DuHKVpyAR3wappmQ0jGx6y4A8m57fhdMXiSuJAyVcWK5t3fTkCdHWcuNBDoUMdSelX3FQLlCaeCwpG7ckgnHrVb%2bGDb/%2bB25T7KY5dSp4dY6wpRwcehwBkduRTA8NrZSFJ57ncKQbUNAwi6iG7yCla2S3ZEFtxauooJJHGeaksOrV4qSfp7cUUV5q8DKadwpMYeKOon17Go65zrLwQjbjnuPmiiswgEG64chVyk%2bSU5u6sH39qSo1kN4cDN0ut0lRt4dUw6%2bC2og5GRjtRRV/T/bIeR%2b1u9o8Kyv94mwGU%2bXdAQnpCCgbcDsMYpLTqu5uokqcLJKfp6MY70UUhRxMMdy0fSiJJX//2Q==' /%3e%3c/svg%3e"},"path":"/blog/2019-07-20-nowe-wyzwanie"}},{"node":{"title":"Headless browser i puppeteer?","date":"16 lipca, 2019","description":"Ostatnio postanowiłem, że dam sobie chwile wytchnienia i poszukam jakiegoś ciekawego tematu nie związanego bezpośrednio z Front Endem, ale z samym programowaniem w Js. Często oglądam materiały na kanale Hello Roman i szczerze powiedziawszy odnalazłem tam temat, który mnie nieco zainspirował i zaciekawił. Mianowicie dowiedziałem się o Pupeteerze i o Headless browser czyli dzisiejszym temacie tego postu.","image":{"type":"image","mimeType":"image/jpeg","src":"/assets/static/theater-568051_1920.0b85c65.2c9efb7.jpg","size":{"width":1920,"height":1280},"sizes":"(max-width: 1920px) 100vw, 1920px","srcset":["/assets/static/theater-568051_1920.1b91758.2c9efb7.jpg 480w","/assets/static/theater-568051_1920.3df3210.2c9efb7.jpg 1024w","/assets/static/theater-568051_1920.0b85c65.2c9efb7.jpg 1920w"],"dataUri":"data:image/svg+xml,%3csvg fill='none' viewBox='0 0 1920 1280' xmlns='http://www.w3.org/2000/svg' xmlns:xlink='http://www.w3.org/1999/xlink'%3e%3cdefs%3e%3cfilter id='__svg-blur-7'%3e%3cfeGaussianBlur in='SourceGraphic' stdDeviation='40'/%3e%3c/filter%3e%3c/defs%3e%3cimage x='0' y='0' filter='url(%23__svg-blur-7)' width='1920' height='1280' xlink:href='data:image/jpeg%3bbase64%2c/9j/2wBDAAYEBQYFBAYGBQYHBwYIChAKCgkJChQODwwQFxQYGBcUFhYaHSUfGhsjHBYWICwgIyYnKSopGR8tMC0oMCUoKSj/2wBDAQcHBwoIChMKChMoGhYaKCgoKCgoKCgoKCgoKCgoKCgoKCgoKCgoKCgoKCgoKCgoKCgoKCgoKCgoKCgoKCgoKCj/wAARCAArAEADASIAAhEBAxEB/8QAGgAAAgMBAQAAAAAAAAAAAAAABAYFBwgDAv/EADcQAAEDAwIDBQUFCQAAAAAAAAECAwQABREGEiExQQcTIlFhFDJxkrEVIzSRoSRSY4GCk8HR0v/EABgBAAMBAQAAAAAAAAAAAAAAAAIDBAEF/8QAKxEAAgIBAQUHBQEAAAAAAAAAAQIAAwQRBRITIaEUMUFCUVJxFSIjMtHw/9oADAMBAAIRAxEAPwDPUdpwO7ePDqE8PrU9BsM6e0DDhTJPHblptShn48qO0RY/ttc5vfscbZ3I4ZyryxS8i5Xa2T5MeNcJkYIcILbT6kDPXgDXENhtdkQ810nUChQCfGMzOhNQyUju7ROG09UgfUiu57MtVhAULNOIPoj/AKphtujtcXWK8%2bxdUyWWODqvaiQ2cZwdyfKiInZlrRcoBmUwt7G7aJIJHLpt9RUXaXHnXrCKrFNXZxqhCSpdluYx5NA/Q1EzdN3KAf2yHPYH8SOoD88VazHZ92iq2Fm4sjPu/fpGfh4PQ0r6pZ1pY2J6pOqNrkVXcyGY0pYWk8Mp4IAyAoEjPI0VeRazaby9ZhC%2bEr9cYgHDivloKUWg2vD%2bXEDO3BH606dnGkHtUx7i%2bXlLRHUEgr45JGaidX2UWmJJBBStK0oP51UmTXxuDr9w0mGs7u94Q7QZLTcuQmQ9kpHuukH60rXq3ynLxNfbadLSnCsLJ5jmTUjo2SpMJ7CiTnAHxpwtkCRKjvIctCVqWyQh5ajlCiMcs8OfWlPaca539eUalfERRGPQerJFsYuMcTVpbfUFFKhuBO3HHIPSmiDqydGu4cecCO6T4stowlACT%2b7%2btJdr0HLRlTd9bZLgSVIXb1qwcYPHNSw0TdSSU6qioynac25XEHn19K5dgqLEhh1/kcKX0/WWBH1wkexBExaDkkJLBUFAg9QPWs/9q13dk6w1OC66GnHytTYWdpUUtjIH8h%2bVMd1hv2JDal60aSrdtCEwVZScHnuVSncrAxeEyZjeoRNuEpXFv2UpU5jGSDuIzgcqrwlrrbfZtR8H1%2bImyttNAOckux%2b8SIFpnhh%2bQ2FPhSu7Uce6BxobtSkrdZdcU6pQdWkklWeNL0e5TrA0uAqCiOXiFfejK9ucZJB49fhUfcZbsnS0YyHnHXO9IytWTjJqtcTXK7QO4kf7pFcT8RQ94EZ%2bz23rtzry7mhCElI2Ddkg59OVWpCukVCRsKTw686zcLpOz%2bLf%2bc0S3d7gkDEt75qLK2ZZe5csNTH4%2bfXUu6FM0wLqMjuktkHqaKZuSeJcDYwOhrMyLtcMZ9sfGfJZrqq7XAcpj4/rNRHYz%2b4Sr6qntmj5EmF7ym44UeuwE/SgJE634PhaKvRIH%2bKz4bxcc/jZHzmvJuc5XEzJH9w1o2O472gHaaHyy3b81bbgju5KErQDuTlPEHzBFVxqGwrTGTHtfjYSrcErWNw8%2bPDNRHtspafFKfPxcP8AuuC3nVHxOuH4rNW42HZQeT/yS3ZVdo5rP//Z' /%3e%3c/svg%3e"},"path":"/blog/2019-07-16-puppeteer-i-headless-browser"}},{"node":{"title":"Jak ugryźć code review?","date":"12 lipca, 2019","description":"W zamierzchłych czasach, gdy zaczynałem programować i pisałem swoje pierwsze projekty, bałem się przedstawić kawałek swojego kodu w obawie, że będzie kiepski i zostanę wyśmiany. Code review napawało mnie strachem przed tym że zbłaźnię się pokazując swój projekt. Często też tłumaczyłem swój strach wmawiając sobie, że przecież jestem dobrym programistą, a mój kod jest nie tylko czytelny dla drugiej osoby, ale też używam dobrych praktyk programując. Nie wszystko okazało się prawdą z perspektywy czasu, a ściślej biorąc nic.","image":{"type":"image","mimeType":"image/jpeg","src":"/assets/static/audit-3737447_1920.0b85c65.40f4f88.jpg","size":{"width":1920,"height":1413},"sizes":"(max-width: 1920px) 100vw, 1920px","srcset":["/assets/static/audit-3737447_1920.1b91758.40f4f88.jpg 480w","/assets/static/audit-3737447_1920.3df3210.40f4f88.jpg 1024w","/assets/static/audit-3737447_1920.0b85c65.40f4f88.jpg 1920w"],"dataUri":"data:image/svg+xml,%3csvg fill='none' viewBox='0 0 1920 1413' xmlns='http://www.w3.org/2000/svg' xmlns:xlink='http://www.w3.org/1999/xlink'%3e%3cdefs%3e%3cfilter id='__svg-blur-2'%3e%3cfeGaussianBlur in='SourceGraphic' stdDeviation='40'/%3e%3c/filter%3e%3c/defs%3e%3cimage x='0' y='0' filter='url(%23__svg-blur-2)' width='1920' height='1413' xlink:href='data:image/jpeg%3bbase64%2c/9j/2wBDAAYEBQYFBAYGBQYHBwYIChAKCgkJChQODwwQFxQYGBcUFhYaHSUfGhsjHBYWICwgIyYnKSopGR8tMC0oMCUoKSj/2wBDAQcHBwoIChMKChMoGhYaKCgoKCgoKCgoKCgoKCgoKCgoKCgoKCgoKCgoKCgoKCgoKCgoKCgoKCgoKCgoKCgoKCj/wAARCAAvAEADASIAAhEBAxEB/8QAGwABAAMAAwEAAAAAAAAAAAAAAAUGBwIDCAT/xAAuEAACAQMCBQMEAAcAAAAAAAABAgMABBEFMQYSIUFRBxMyFCJhgQgVJTVSYnH/xAAZAQADAQEBAAAAAAAAAAAAAAAAAwUCAQb/xAAiEQACAgICAgIDAAAAAAAAAAAAAQIDBBEhMRJBBVETFbH/2gAMAwEAAhEDEQA/AJylKU48iKUpQApSlAClKUAKUpQB92jaVc6xe/S2QQy8hf725RgY7/upa%2b4N1Sws5ru9eyt7aFDJJLJOAqKNyTjapb0vsJl1gXrYWIwuqg7nqOv/ADpVp9RCsel2Fzc/2611C3nvc7CJW%2bTf6q3Ix8BSe1L80%2bivjfHxnWpWJpv%2bGRNYapHb/V3GjalBpu5vJIQEVf8ANkBMir3yU6DqcVyvrV7K5MMjRuQqsGicOrBgGBBG4IIrf5bmCC0a5mmjjt0QyNKzAIqgZLFtsY65rzpa8stsLm2H9PneSWzI6qLdnYxAHbohXp2GB2rqlvsxmYcKYKUN9nZSlK2SwTgZO1V7g71A4T1Tjp9B1S6e3tnAjt77mAhefPxY9l7BtifHQ1nPq9x5IZbjQNJZo1UlLubqCx7xr%2bPJ77bb1f0x4Kbiq/ee6bk0y2Ye9yn7pCeoQeM9z4/NYk98IqY2NCuH5r%2bvo9yaU/t69/LrSZI7uFGDKOqqox%2bvGKucUTC39u4f3iQQxZRg57Y8VkfpUiQ8SJHGAsaWzqoHYDlwK1/nXzSK6FVwmytVmSy4ecklz6K2nAvDaSKw0yMxI3Otu0jmBT5EJb2x%2blqgQ8MQ6Dr%2bp2eizxDTnn5pdLkXEaKwDFo8fE5Y9MY7eDWx86%2baxbj9iOL79kYggpgg4PwWuW0K5a3poZ%2byngJyik1Lhp%2b0R3FdjDoAtri4uIobS7m9iAyyBS0mCeQZ323qOrGP4iZeIdR1uz1DVriObS1QW9kkf2rDgAsCufkcZLd%2bm2AK4emnqXJC8Gk8Qu8sTERwXWCzKdgr9yPzuPz2dXuKUZPbIuTiwsTux%2bn6%2bj//2Q==' /%3e%3c/svg%3e"},"path":"/blog/2019-07-12-jak-ugryzc-code-review"}},{"node":{"title":"Wykorzystanie generatorów stron statycznych.","date":"9 lipca, 2019","description":"Każdy chyba kojarzy stronę na której  po wejściu otrzymujemy  nawigację, treść, która nie ulega zmianie i stopkę. Stronę bez formularzy, bez logowania  i która nie zmienia swojego wyglądu dynamicznie. Jednym słowem zwykła strona, która może posłużyć na przykład jako bardzo prosta wizytówka  firmy.  Pierwsza strona internetowa, która powstała w sierpniu 1991 roku za sprawą Tima-Bernersa-Lee  była właśnie ową stroną statyczną.","image":{"type":"image","mimeType":"image/jpeg","src":"/assets/static/engine-3480737_1920.0b85c65.b087b0b.jpg","size":{"width":1920,"height":1280},"sizes":"(max-width: 1920px) 100vw, 1920px","srcset":["/assets/static/engine-3480737_1920.1b91758.b087b0b.jpg 480w","/assets/static/engine-3480737_1920.3df3210.b087b0b.jpg 1024w","/assets/static/engine-3480737_1920.0b85c65.b087b0b.jpg 1920w"],"dataUri":"data:image/svg+xml,%3csvg fill='none' viewBox='0 0 1920 1280' xmlns='http://www.w3.org/2000/svg' xmlns:xlink='http://www.w3.org/1999/xlink'%3e%3cdefs%3e%3cfilter id='__svg-blur-4'%3e%3cfeGaussianBlur in='SourceGraphic' stdDeviation='40'/%3e%3c/filter%3e%3c/defs%3e%3cimage x='0' y='0' filter='url(%23__svg-blur-4)' width='1920' height='1280' xlink:href='data:image/jpeg%3bbase64%2c/9j/2wBDAAYEBQYFBAYGBQYHBwYIChAKCgkJChQODwwQFxQYGBcUFhYaHSUfGhsjHBYWICwgIyYnKSopGR8tMC0oMCUoKSj/2wBDAQcHBwoIChMKChMoGhYaKCgoKCgoKCgoKCgoKCgoKCgoKCgoKCgoKCgoKCgoKCgoKCgoKCgoKCgoKCgoKCgoKCj/wAARCAArAEADASIAAhEBAxEB/8QAGgAAAgMBAQAAAAAAAAAAAAAABgcDBAUAAv/EADIQAAIBAwQBAwIEBAcAAAAAAAECAwQFEQAGEiExEyJBB1EUMmFxFUKBoRYjNFJikcH/xAAYAQEBAQEBAAAAAAAAAAAAAAAEAwACBf/EACMRAAICAQQCAgMAAAAAAAAAAAECAAMREiExQQQiMlFhcbH/2gAMAwEAAhEDEQA/AEVbLZUXKuhpKNeU0pwB/cnWvuC2Q2iruFvaRmmjkjVefZb2gk9ePOmjuP6YQV9F/H/p9Mz0pU/iKAP74esngTnkP%2bJ7/fQJtIW%2bDdBa%2bCKdEKH0y4VZFH5hy6APjr57Glm/V7jgDjuOrAbYczL25ZJq%2boVUkBiKSFGCgqJVQsqPkdZxjvz8a27HcXpa1YKm0RLRyRcWgMUrgjOQ6tnkhzk5XP7atm82qg3bOlvhVrfWKlPJGrKVBL5ypPR4gjs/OdX9iXv/AA/fK6iNbStQNJ7Yqn3qxDceY6YA4LEg4B8ecajYxsBJHUroI%2bPMkq9wWyjkkqLYZfwtRGPXt9yRnjDqQMnvGcA4kXB77A7GqFivERuNRMYIngc%2b2N1BCKckZKkdZ6yB19tOC/7Q2feqWRQtFStxyJKMLDIPkdEYI8fGk9Lajty/VaRH1o4S3CQAe%2bM9Keus5Heio9VikDn8yWomRXKhqIZI7hRsKcrymh9UhuLp7vby6z48fbVOq3RumaCvgmvFS0NYpWeJfT4MD5AA6XP6Y1Xr1Ms1zQVBlRKepCQysSqKApHBfCnvrx40GNC/Z9PA/pr0KKgR7fyZj9iPH6b36vtszNZ1KicFmZzlcqPONXfqLa6TdNsu1dZqOE3tFjnqqaFBylAOWnjA8nicMB31nvQr9P6tZYYkyTJGSVUHz1rUqK5qDchmopWppR3GydFHXwR/fQ2DLdtMAMahzFVDSSVjFhKjqRkHBIP6d/Oi6awPQGmLenGTH6kFUIiI5SPMefGfno6P59nbf%2bolDVTUai07rVGmMcP%2bnrGxkkR/ysfnjjvvvQBs%2b5T7b3FJt%2b7N%2bIs1XIKaspXJ4Bj0sig%2bGUkdj9dJZzYMqeOp3XYPqGluulVOkdPHFA3CNRyUBsYIGCRgAZ/870Hbj9UblJDqtU5Kfh2PL3A/lI8fb9NT01PVW%2b/1qUUjPNSSPBM5lMcKqGyvMnznGcD/ALOvN8oayaFqumSaarB9d3WMxJwP8yq3bDkPzEjODgH4HXWtb5HBETc2tNIhpc/paKS2JcHuSrBU00r1aJGZJIgyqG4f7wuM96VO4ds/weo9BuNTG3uSqpyWV0PgkfBPXR%2b%2biyyb1ray0S2muqHxI/ONy2Gik8EZ%2bzfI1DdWjNLTU9PdeBqA6BGbi8BAHsc/zL9j8aqjXVPhjtIpUrocncQS2rdWttyikDEAN3ot3HVQPVrUK5lOQ5B66%2b2lspIkGPvrblkdokLMSeGNNtqDMGh1OIc3StitG6Fe1vLHQzRx1NM3I5jDDOA36MCNe90RUm5SLzF6dPuKEq8ik8Y6/jjDD4WToZ%2bG/fQ6rtLZbeZDyIgmTv7BgQP6EnWXNUzfhYv8xvvo1dZPe42/co4CEERw3Km2vtPbobcM9bW3iqQs9TESeEzjkfTB6XjnonOlZed0S3OhWmQPHTQxrDCjOWbgpOMk9k9kn99Wd6XStaTDTlgQjdgHvgP00Eq7M7EkknW8Tx/XW%2b5ndraMATo5WgkJyez3q5LU/iiGl9zgYJ%2bSNZ0592ujJGMHXolc7wwbBn//2Q==' /%3e%3c/svg%3e"},"path":"/blog/2019-07-09-wykorzystanie-generatorow-stron-statycznych"}}]}},"context":{}}