{"data":{"posts":{"totalCount":9,"pageInfo":{"totalPages":2,"currentPage":1,"isFirst":true,"isLast":false},"edges":[{"node":{"title":"Praca z Metodykami  zwinnymi","date":"30 lipca, 2019","description":"Jakiś czas temu pracowałem z wykorzystaniem metodyk Agile i chciałbym się dziś podzielić swoimi doświadczeniami związanymi z tym tematem. Jeden z większych projektów, które realizowałem był właśnie zrealizowany z użyciem wymienionych metodyk. Chciałbym jednak zaznaczyć na samym początku, że nie moje doświadczenie związane z metodykami zwinnymi nie jest szczególnie bogate i jeszcze wiele mogę się nauczyć o tego rodzaju sposobie wytwarzania oprogramowania. ","image":{"type":"image","mimeType":"image/jpeg","src":"/assets/static/team-386673_1920.0b85c65.5d91fce.jpg","size":{"width":1920,"height":1440},"sizes":"(max-width: 1920px) 100vw, 1920px","srcset":["/assets/static/team-386673_1920.1b91758.5d91fce.jpg 480w","/assets/static/team-386673_1920.3df3210.5d91fce.jpg 1024w","/assets/static/team-386673_1920.0b85c65.5d91fce.jpg 1920w"],"dataUri":"data:image/svg+xml,%3csvg fill='none' viewBox='0 0 1920 1440' xmlns='http://www.w3.org/2000/svg' xmlns:xlink='http://www.w3.org/1999/xlink'%3e%3cdefs%3e%3cfilter id='__svg-blur-14'%3e%3cfeGaussianBlur in='SourceGraphic' stdDeviation='40'/%3e%3c/filter%3e%3c/defs%3e%3cimage x='0' y='0' filter='url(%23__svg-blur-14)' width='1920' height='1440' xlink:href='data:image/jpeg%3bbase64%2c/9j/2wBDAAYEBQYFBAYGBQYHBwYIChAKCgkJChQODwwQFxQYGBcUFhYaHSUfGhsjHBYWICwgIyYnKSopGR8tMC0oMCUoKSj/2wBDAQcHBwoIChMKChMoGhYaKCgoKCgoKCgoKCgoKCgoKCgoKCgoKCgoKCgoKCgoKCgoKCgoKCgoKCgoKCgoKCgoKCj/wAARCAAwAEADASIAAhEBAxEB/8QAGgAAAwEBAQEAAAAAAAAAAAAABQYHBAMCCP/EADYQAAEDAgQEAwcDAwUAAAAAAAECAwQFEQAGITESE0FRFGFxBxUiMkKBoSNisTNTkXKSwdHw/8QAGAEBAAMBAAAAAAAAAAAAAAAAAwIEBQH/xAAnEQACAgECAwkBAAAAAAAAAAABAgADERIxIWGhBBMiQXGx0eHw8f/aAAwDAQACEQMRAD8AXYdFYk5giUl6YuEqSsNKUg8CkkjYHob6ffA%2bv5XqXs3W%2b2lDkqGXP1mN/hOy0n6SOuCVZzHGTl2lIqAXUpK0DxUlxPLdjqvopKx/U9D0G%2bNxz8mp0ZDFaUuosMCzVTijjdbHZ5vdQ/cNe4O%2bM0FxzEupYth3%2boeoVSjZ5yt7hqbpkTksLEGW4riVIbtqhR/uJH%2bQL9DiSZNpS5Dj9FKEpk%2bLSwtS9Ascdlelhr6DBWkuiHU23qM%2bF0tTgecXHBK4iwbpdSnca/gnfB%2bcac5VZtUhP8qpEiWUoALS1X%2bdPTf6f5xBshSRDuJKZGOHUeeJRa3lumRs%2bO5orbzZoVDhMMJ0vxuoFkoA6m5Bt/p74yTq1VnqgnNuYYD6IzKT7kpx%2bXmqFg655gX9Nbdyv5zzNHq1CocCGFJKCZky%2bgcfOl/Pr6XGHiDXo8XLcKuVhtApzDZbpsFSuJbzm3MXfYaGxN9LnFcMDDW1Cx0Hn%2b9JxhS2vZtlGTVKyRKzZW1mQ43stxZHwp/ahAIv0HriRUzJ2Y851CVVmmOfJlrUXpj4CGQTpwpJvoBYaA4swNFqBcqM9hFfrjgT8CUKcTrshCdQEi//AHqcHcl0LNMyssz8zy2YcOOFFilQxwt66J47bgDW3fftha9TNhZOxcgE7T5PRVYNTivyUR3ZLURIW6wtPCLE21I/nDDT6hSpdFXLYhM04qUUNtqeAUpVrXQEgE4G%2byPJ8yrl1yIpElqU2WlsgKsLG54trkdsVGHkCHl1NPkz4aFNTTymHGwi7a1AkBQVbsb9saQ01jSghd2D4mwvp8Sex5tcplUpk/3cI0wJSoKIBQ42dLKRtY22xvqEvxEyZIU3Hj8x4LU0wnhSrTRVhsDrphgzLlqW6xRoUqs82rS30rWAtPJiRxfewuTsBpvjTVstwpVRrcekrWhmncpCVSbXdWq5CU28hfvp54yrtTekLtNNrHI267cohKVIU0434ji4VAcIHQ3/AIt%2bcHKHPPiaeag05NZiOXSxx8QUOiUg6bjbrhuyrkf3hCVJTIQzVWJqorsWS0FpCkJ4wlVtTfT7Y8e0CLTqDmuC47akQ3kJeYebBKOYDqL2ski1uxt9sQCNjaHX2S0ANKHBznGdZCp8pmgNcu3JUgoeTbY8ZFregxKJtZy89X3Ji8/5kjPIeJZeQ0tYsBvext10ta2GidnHMSmuCj1GkVhDaOIxmWG1r4O9ibkemAKvbmIMgx6/lGOopNjygWFf7VAj84ZDq4DeXrFKkd4NuW/WJVCjPNNsxaaFFxSyllDNxcq9N/M4d1U9ykLLDDyH6igguvqJcbirI1S3fQrA%2brp%2bMZs5ZimZWbguy/Bqq6o3KUqPGQ3ykHUIFtLi9r4WGc/P5iy/Fy6xTxFcaU4uVPDxKloUokm1vn1te/bHUoLNqJyIdFYqbx8Sen37TlUq4YQdXRrqs9ymlfOqbJPzKJ6pTr9/THf35KoNSocadKclzfGtVOoDiuNLBKB6Jv8A%2bOCSKMihxo9Tmxwm7fLgRtNE%2bXmepwumLfny3HBImvLKnXCNNeg7Af8AGJXWLWMTva7wgwDx9v3tKnm6oVaO3m6TR%2bFidEqEebEU3qFANHvvxBJ/zbGSPPi1%2bfDpWZX/ABtEzXHTIiuPhKfBzOC4CbfKlQBT6pHc4YMt8NcyQ7UGSFyUxkMPDclxg2/KVA4keaZDVZy2aGylTNTpUha2HNgponjQB5gqWL%2bmI1EnEulg66h5/wB%2bRFnPeWarkWtpWh97loX%2bhJQohaOo1HlseuGahZ1pGbY7VLzrDCZjlmm6i1YIKjtzB9PqNPIYPUOIn2h%2bzCZHkO2rEBHyE/F8J1H2Nj9zhBeyl7ppZTLfSXVi60afD9%2b%2bFsVWGH38jCUtW2qvY7if/9k=' /%3e%3c/svg%3e"},"path":"/blog/2019-07-30-praca-z-metodykami-zwinnymi"}},{"node":{"title":"Komunikacja między komponentami w Vue.","date":"30 lipca, 2019","description":"Ostatnio nieco myślałem na temat samej komunikacji między komponentami w przypadku Vue, temat jest o tyle ciekawy, że możemy realizować tą komunikację na parę sposobów. Na tą chwilę myślę o jakichś dwóch lub trzech postach, które pojawią się na tym blogu i będą związane z tym zagadnieniem. Dziś postaram się przedstawić tą najprostszą możliwą komunikację między dwoma komponentami czyli rodzicem, a dzieckiem. ","image":{"type":"image","mimeType":"image/jpeg","src":"/assets/static/michelangelo-71282_1280.3df3210.41a5cca.jpg","size":{"width":1280,"height":803},"sizes":"(max-width: 1280px) 100vw, 1280px","srcset":["/assets/static/michelangelo-71282_1280.1b91758.41a5cca.jpg 480w","/assets/static/michelangelo-71282_1280.3df3210.41a5cca.jpg 1024w"],"dataUri":"data:image/svg+xml,%3csvg fill='none' viewBox='0 0 1280 803' xmlns='http://www.w3.org/2000/svg' xmlns:xlink='http://www.w3.org/1999/xlink'%3e%3cdefs%3e%3cfilter id='__svg-blur-2'%3e%3cfeGaussianBlur in='SourceGraphic' stdDeviation='40'/%3e%3c/filter%3e%3c/defs%3e%3cimage x='0' y='0' filter='url(%23__svg-blur-2)' width='1280' height='803' xlink:href='data:image/jpeg%3bbase64%2c/9j/2wBDAAYEBQYFBAYGBQYHBwYIChAKCgkJChQODwwQFxQYGBcUFhYaHSUfGhsjHBYWICwgIyYnKSopGR8tMC0oMCUoKSj/2wBDAQcHBwoIChMKChMoGhYaKCgoKCgoKCgoKCgoKCgoKCgoKCgoKCgoKCgoKCgoKCgoKCgoKCgoKCgoKCgoKCgoKCj/wAARCAAoAEADASIAAhEBAxEB/8QAGwAAAwEBAQEBAAAAAAAAAAAABQYHAAgDAgT/xAAzEAABAwMDAgMGBAcAAAAAAAABAgMFAAQRBhIhMVETQWEHFCIycYEVI1KxMzRCU2Jykv/EABQBAQAAAAAAAAAAAAAAAAAAAAD/xAAUEQEAAAAAAAAAAAAAAAAAAAAA/9oADAMBAAIRAxEAPwBYh7EAJAFO8LGbyn4aEQtuCU8U72t7YxFv49%2bvY2gZUQPlHrQH4aEBSnKaY24RIT8tCNO60gLm5LCbgISlOS4SClJxkA46ZHn0pgu9ZaasgkXErbt7uhJyDQDLyGTg/DSrMQ4SDhNPlnqKBl1FuOlbK4d/tpcG7/k81%2bOXt0lCulBFJix2FXFIs2yhIVmqxqdkI3YFSPVz4ZQvvQNjcqiztlLZSpxaeu3y9anuu9fvXDbkcwAbYfxAf6j2zXjLatNsymxiGQt9z4cgFSiT27mh7mlpGQktzGnZNQWM/wAushxXHpwM0BCIs4CBvBfSU7cKUkJUqwjVrTklI4Lqucd8D6V1B7H9MaenNFWU3faXhEvXu9bZDQey1uITndnCuOQOn1qO6X9ikjqWXjbuYhraDjGnE%2b9tKuCXH0Dk7UjJTnp1GPtXVMDGxsDD2sXEMItrG2RsaaSSdoznqeScknJoB95puAZi3GBB2AtWwpzwmbZKecZJTtAOePLmuXtQan1nGzN05HXrbUAlxfu7Tt8hZcQk8JAX%2bYSe2PvXXL900gHcsCp9qfR%2blZeTek5COt7u7c2lRcUcEpGAcAjnFBErXXYuLRH40hv3h45CP0jse1Dpd6EugVPIt1E%2bRVmqbPR8VbW6re2sLJpn9CWUgftUf1dERhS4pu3YbV3QNv7UHx7N9Oph8X18AuScHGefBHYevc/arDDSfh4yrj61q1AzI1QhhsAKGa9LHVLVw%2bEuulJPY1q1AZuJBpLBUg%2bJx51MNRT7hvVtttra/wBc4rVqBKnr6%2bLalAuKHoalWo5J11xSXPGB/wAs1q1B/9k=' /%3e%3c/svg%3e"},"path":"/blog/2019-08-11-komunikacja-miedzy-komponentami-w-vue"}},{"node":{"title":"Kilka słów o Slots w Vue","date":"24 lipca, 2019","description":"Gdy zaczynałem naukę Vue,  sloty wydawały mi się trudne w użyciu i nie  do końca wiedziałem w jaki sposób mógłbym ich użyć?  Szybko więc się odbiłem od tematu i  pisałem kod nawet nie rozważając ich użycia. Zdecydowanie był to błąd i dopiero po  jakimś czasie zrozumiałem jak ogromny potencjał tkwi w wykorzystaniu slotów.  Podzielę się trochę wiedzą na ich temat oraz tym jak z nich korzystam. ","image":{"type":"image","mimeType":"image/jpeg","src":"/assets/static/storage-1209606_1920.0b85c65.baeabc7.jpg","size":{"width":1920,"height":1276},"sizes":"(max-width: 1920px) 100vw, 1920px","srcset":["/assets/static/storage-1209606_1920.1b91758.baeabc7.jpg 480w","/assets/static/storage-1209606_1920.3df3210.baeabc7.jpg 1024w","/assets/static/storage-1209606_1920.0b85c65.baeabc7.jpg 1920w"],"dataUri":"data:image/svg+xml,%3csvg fill='none' viewBox='0 0 1920 1276' xmlns='http://www.w3.org/2000/svg' xmlns:xlink='http://www.w3.org/1999/xlink'%3e%3cdefs%3e%3cfilter id='__svg-blur-6'%3e%3cfeGaussianBlur in='SourceGraphic' stdDeviation='40'/%3e%3c/filter%3e%3c/defs%3e%3cimage x='0' y='0' filter='url(%23__svg-blur-6)' width='1920' height='1276' xlink:href='data:image/jpeg%3bbase64%2c/9j/2wBDAAYEBQYFBAYGBQYHBwYIChAKCgkJChQODwwQFxQYGBcUFhYaHSUfGhsjHBYWICwgIyYnKSopGR8tMC0oMCUoKSj/2wBDAQcHBwoIChMKChMoGhYaKCgoKCgoKCgoKCgoKCgoKCgoKCgoKCgoKCgoKCgoKCgoKCgoKCgoKCgoKCgoKCgoKCj/wAARCAArAEADASIAAhEBAxEB/8QAGwAAAgMBAQEAAAAAAAAAAAAABAUCBgcDAQj/xAAzEAABBAEDAQYGAAUFAAAAAAABAgMEBREABiESEyIxQXGBBxQyUWGRFiMkM7E0QlTB0f/EABgBAAMBAQAAAAAAAAAAAAAAAAECAwAE/8QAIhEAAgIBBAIDAQAAAAAAAAAAAQIAESEDBBIxUZEiQWHw/9oADAMBAAIRAxEAPwD12npA83GrL0PqcUEAqZISM%2bZUNWJ/bNpGhIaaoYUsoT/qEycE/nHGklK7U2l2wh%2bvbroqkqx8o4chXGCSeOPTVg3BWV6UKzu91/oHcjrUXfbuH/I1JdppJ0vckd5qOCeXULrGBAoEosXJlW8M57JntAfTg6jtORCkzpUJuW5P6x1J%2bda6AT9uP/NO6aXuGLRRl1kFicytpKk/1HKOOR08f51CtsLBUiS7uWubaSOhICo4QACTnCvPy89dKoBgSJ1WJFmQaizKOeVvRqaFBX9fYvdCz9j3sanbIarJKZzbV7MURwlsdbRz%2bdB3kfYK1FxanFyFeKYjqlnP5ySnVirBKkUrKKCxREWpsLSJTHalKT4YwQPL7HRoVMGNkQZSXrGuTKqPk4D/AE94SmO8n3zoR9yotUor7WwjyZ/T4RHlJCyPTgagzQ7rYsnJlpZMWEcIwpJc6UYzzlKhjGjrSNRVsRNi9RLU8U935CMVE%2b6OAPydGayfr3M82e7W3dhORuKMzKW8UqD30KRxjjpxgaNv6Ta1c24K65Wl8A4YQkSBn7EjGPc6C27sap3BSRpEKZIizi2kOoWrtELV98a52mwb%2btYW5HbZnMoBJ7FWFADz6T/1pbz4kGDcMjl/e5Z6H%2bK4W3IrtPHhyW3GwrKXApSOPDoOBn96TuW94zdwnb1UxJQ6FBEhBS2OD4DHTrls/eyaOqjJlx5WFtgoR0YCh6nA10ufiRa2cZ5lptiFHUCnpQe0WpOPNRGB7D30bz5hagoJJX8l8mubUfgiVbMwGCR9WOlZ9Onk6rjG4oDl1BhURfjx%2bnsu2fHVgAEjCc5PudG7Yqdv31FEROr2kyQylPbIJS4ePNQPPvrx34aJjTUSquzWnsySG30ZGMfcaF13KEM1FKnLcOz9y2iSs3jVg2fpbXllI9EjKdWKuXY1RKZMdxMZDaMrSQpKcIAPIPAyDpVC3BMjmZDrWEW8qIgKWmM8AnnyyfP8DOsx33uvcc8Os26XoUf/AIyEFCPc%2bKvc63IdCErx%2beYk21u2xoUJZ7FAfQMEO5GPbx0wst3WtshQnTlqbI/tI7iP0PH31rG66KstIJenwmXXkp4WRhX7Gvne9SIlg%2bzHyhtKsAZJx%2b9BDbcWkdwp005JgGb5sC3YsNvxYNkht9oNhIC0hQx9sHR9t8O9vWLa1NIchKPPUwvAHseNZD8O5b4aj4dV4ac7yvLJcpEMzHRGI5Qk9IPrjTsAKIjI9qQ%2bQJYaaHKrLxdTSWEexLLHX1LWEAEcdJIyM6Sb2nbzUFt3EeUxBH%2byMMtH1Kck%2b%2blewnnG9ynoUU4QPD11vsZRcjpK%2b9keelKk9mNpsGFLiYD8NLwRLWSpLnScpTjw8jrcosyLZRv57bTgUOQoAg6Bv9vVMlhbz1fHLwGe0SnpVn1GNUZiQ9DW63GdWhCM4Gc4/esaIqo6K2n0Z//Z' /%3e%3c/svg%3e"},"path":"/blog/2019-07-24-kilka-slow-o-slots-w-vue"}},{"node":{"title":"Nowe Wyzwanie","date":"20 lipca, 2019","description":"18 lipca 2019 roku odebrałem telefon i to co usłyszałem podnosząc słuchawkę, sprawiło, że czułem czystą radość, a zarazem przerażenie. Zostałem zatrudniony w pewnym niewielkim polskim oddziale firmy zagranicznej jako programista. Sprawiło to że nie raz pojawił się uśmiech na mojej twarzy tamtego dnia. Pomyślałem więc że będzie to unikalny post w którym podzielę się przemyśleniami na temat rekrutacji, którą udało mi się przejść pomyślnie. Zdecydowanie będzie to post bardzo osobisty.","image":{"type":"image","mimeType":"image/jpeg","src":"/assets/static/balloons-1615032_1920.0b85c65.b42e2c9.jpg","size":{"width":1920,"height":1080},"sizes":"(max-width: 1920px) 100vw, 1920px","srcset":["/assets/static/balloons-1615032_1920.1b91758.b42e2c9.jpg 480w","/assets/static/balloons-1615032_1920.3df3210.b42e2c9.jpg 1024w","/assets/static/balloons-1615032_1920.0b85c65.b42e2c9.jpg 1920w"],"dataUri":"data:image/svg+xml,%3csvg fill='none' viewBox='0 0 1920 1080' xmlns='http://www.w3.org/2000/svg' xmlns:xlink='http://www.w3.org/1999/xlink'%3e%3cdefs%3e%3cfilter id='__svg-blur-10'%3e%3cfeGaussianBlur in='SourceGraphic' stdDeviation='40'/%3e%3c/filter%3e%3c/defs%3e%3cimage x='0' y='0' filter='url(%23__svg-blur-10)' width='1920' height='1080' xlink:href='data:image/jpeg%3bbase64%2c/9j/2wBDAAYEBQYFBAYGBQYHBwYIChAKCgkJChQODwwQFxQYGBcUFhYaHSUfGhsjHBYWICwgIyYnKSopGR8tMC0oMCUoKSj/2wBDAQcHBwoIChMKChMoGhYaKCgoKCgoKCgoKCgoKCgoKCgoKCgoKCgoKCgoKCgoKCgoKCgoKCgoKCgoKCgoKCgoKCj/wAARCAAkAEADASIAAhEBAxEB/8QAGwAAAgMAAwAAAAAAAAAAAAAAAAYEBQcBAwj/xAAvEAABAwMDAgUCBgMAAAAAAAABAgMEAAURBhIhIjETFEFRYTKhByNCgZHBFnGx/8QAGQEBAQEAAwAAAAAAAAAAAAAABQQCAQMH/8QAKBEAAQMDAwIGAwAAAAAAAAAAAQACAwQRIRIxQQVxExQiMmGR0eHw/9oADAMBAAIRAxEAPwDHo1qkSVtpjsOqyPRPetRsGlY0aM2lxPiO91Lx9qu4cePb7YuU8PDZZb6iB6Co0e/W6btis%2bYZW8MB5SdoQc9jz9xSM08NO0OlNgg6ajreph3lmEhu9lKZas7dxatxSkS8ZSnaeeM4z74qU1o6CxN85HaIdII5PGD7VTlNtsN1TIv0h5uegFSC2CoEDO1RVyM%2bn8ZpO0rqedAlqeRJU4l5xKVNvLJBOfqJ9OP%2b0QepCR7o3t9Oc7Ai24PI7J%2bLoEdRS%2bPRvdqa1uppyS4mxAtsB83WruaQiz0pbkstLQ%2bCFKA5H7%2b9drmlbfBQIzMdCEITtGBjP%2b/enexOsvxtxbKDkdGd3OM8e9QdQSkQZTPmWUGO6k7156m%2btKcn3A3DNZpaiKSMSxe0qHyTidB3Cy3VmjWJdvWtpG2S2Og5%2b1Yrc4ZYkLbWMLScGvWN3gr8JXghJCeCPWsTvml1q8y9KQQ4t5WVjuM9jSkMnCgIMZIcVpNpgh%2bO3EkkOMLT4biV/qGPWqDUzWnNMOsQ029x11WXh%2barp9Bkk89u1PUF21vpCmpIUAQeUkf1XF3sFkvD7Ts4MPLQeCpWP2PuPijW19HN6aghze4SVIZqN%2bqJxHYkJO1FbIl7jIdly0xJy2vy0OP%2bGlzI4G39XpyKXbHoSZc3kiU0GEspwpSE53KGPb3/AKp%2b1PoSHfLkmcLmWXktpQEJKSklP0/IHwKZtGWhVjgLZekNOuOObyUq4HAGBnv2okMLWvpYjaNwwb302PF9kvK6HQypglLZOWgWvffI/vtT9OQn4IKHUYQlAAKlbjnjsaTfxRdvNukuTmloXbHWDGAIBDZWCFAj54IPxWkpcRjlxH81mn4tasjQNNXOBNhvokOtjy%2b8bm3DuHKVpyAR3wappmQ0jGx6y4A8m57fhdMXiSuJAyVcWK5t3fTkCdHWcuNBDoUMdSelX3FQLlCaeCwpG7ckgnHrVb%2bGDb/%2bB25T7KY5dSp4dY6wpRwcehwBkduRTA8NrZSFJ57ncKQbUNAwi6iG7yCla2S3ZEFtxauooJJHGeaksOrV4qSfp7cUUV5q8DKadwpMYeKOon17Go65zrLwQjbjnuPmiiswgEG64chVyk%2bSU5u6sH39qSo1kN4cDN0ut0lRt4dUw6%2bC2og5GRjtRRV/T/bIeR%2b1u9o8Kyv94mwGU%2bXdAQnpCCgbcDsMYpLTqu5uokqcLJKfp6MY70UUhRxMMdy0fSiJJX//2Q==' /%3e%3c/svg%3e"},"path":"/blog/2019-07-20-nowe-wyzwanie"}},{"node":{"title":"Headless browser i puppeteer?","date":"16 lipca, 2019","description":"Ostatnio postanowiłem, że dam sobie chwile wytchnienia i poszukam jakiegoś ciekawego tematu nie związanego bezpośrednio z Front Endem, ale z samym programowaniem w Js. Często oglądam materiały na kanale Hello Roman i szczerze powiedziawszy odnalazłem tam temat, który mnie nieco zainspirował i zaciekawił. Mianowicie dowiedziałem się o Pupeteerze i o Headless browser czyli dzisiejszym temacie tego postu.","image":{"type":"image","mimeType":"image/jpeg","src":"/assets/static/theater-568051_1920.0b85c65.2c9efb7.jpg","size":{"width":1920,"height":1280},"sizes":"(max-width: 1920px) 100vw, 1920px","srcset":["/assets/static/theater-568051_1920.1b91758.2c9efb7.jpg 480w","/assets/static/theater-568051_1920.3df3210.2c9efb7.jpg 1024w","/assets/static/theater-568051_1920.0b85c65.2c9efb7.jpg 1920w"],"dataUri":"data:image/svg+xml,%3csvg fill='none' viewBox='0 0 1920 1280' xmlns='http://www.w3.org/2000/svg' xmlns:xlink='http://www.w3.org/1999/xlink'%3e%3cdefs%3e%3cfilter id='__svg-blur-9'%3e%3cfeGaussianBlur in='SourceGraphic' stdDeviation='40'/%3e%3c/filter%3e%3c/defs%3e%3cimage x='0' y='0' filter='url(%23__svg-blur-9)' width='1920' height='1280' xlink:href='data:image/jpeg%3bbase64%2c/9j/2wBDAAYEBQYFBAYGBQYHBwYIChAKCgkJChQODwwQFxQYGBcUFhYaHSUfGhsjHBYWICwgIyYnKSopGR8tMC0oMCUoKSj/2wBDAQcHBwoIChMKChMoGhYaKCgoKCgoKCgoKCgoKCgoKCgoKCgoKCgoKCgoKCgoKCgoKCgoKCgoKCgoKCgoKCgoKCj/wAARCAArAEADASIAAhEBAxEB/8QAGgAAAgMBAQAAAAAAAAAAAAAABAYFBwgDAv/EADcQAAEDAwIDBQUFCQAAAAAAAAECAwQABREGEiExQQcTIlFhFDJxkrEVIzSRoSRSY4GCk8HR0v/EABgBAAMBAQAAAAAAAAAAAAAAAAIDBAEF/8QAKxEAAgIBAQUHBQEAAAAAAAAAAQIAAwQRBRITIaEUMUFCUVJxFSIjMtHw/9oADAMBAAIRAxEAPwDPUdpwO7ePDqE8PrU9BsM6e0DDhTJPHblptShn48qO0RY/ttc5vfscbZ3I4ZyryxS8i5Xa2T5MeNcJkYIcILbT6kDPXgDXENhtdkQ810nUChQCfGMzOhNQyUju7ROG09UgfUiu57MtVhAULNOIPoj/AKphtujtcXWK8%2bxdUyWWODqvaiQ2cZwdyfKiInZlrRcoBmUwt7G7aJIJHLpt9RUXaXHnXrCKrFNXZxqhCSpdluYx5NA/Q1EzdN3KAf2yHPYH8SOoD88VazHZ92iq2Fm4sjPu/fpGfh4PQ0r6pZ1pY2J6pOqNrkVXcyGY0pYWk8Mp4IAyAoEjPI0VeRazaby9ZhC%2bEr9cYgHDivloKUWg2vD%2bXEDO3BH606dnGkHtUx7i%2bXlLRHUEgr45JGaidX2UWmJJBBStK0oP51UmTXxuDr9w0mGs7u94Q7QZLTcuQmQ9kpHuukH60rXq3ynLxNfbadLSnCsLJ5jmTUjo2SpMJ7CiTnAHxpwtkCRKjvIctCVqWyQh5ajlCiMcs8OfWlPaca539eUalfERRGPQerJFsYuMcTVpbfUFFKhuBO3HHIPSmiDqydGu4cecCO6T4stowlACT%2b7%2btJdr0HLRlTd9bZLgSVIXb1qwcYPHNSw0TdSSU6qioynac25XEHn19K5dgqLEhh1/kcKX0/WWBH1wkexBExaDkkJLBUFAg9QPWs/9q13dk6w1OC66GnHytTYWdpUUtjIH8h%2bVMd1hv2JDal60aSrdtCEwVZScHnuVSncrAxeEyZjeoRNuEpXFv2UpU5jGSDuIzgcqrwlrrbfZtR8H1%2bImyttNAOckux%2b8SIFpnhh%2bQ2FPhSu7Uce6BxobtSkrdZdcU6pQdWkklWeNL0e5TrA0uAqCiOXiFfejK9ucZJB49fhUfcZbsnS0YyHnHXO9IytWTjJqtcTXK7QO4kf7pFcT8RQ94EZ%2bz23rtzry7mhCElI2Ddkg59OVWpCukVCRsKTw686zcLpOz%2bLf%2bc0S3d7gkDEt75qLK2ZZe5csNTH4%2bfXUu6FM0wLqMjuktkHqaKZuSeJcDYwOhrMyLtcMZ9sfGfJZrqq7XAcpj4/rNRHYz%2b4Sr6qntmj5EmF7ym44UeuwE/SgJE634PhaKvRIH%2bKz4bxcc/jZHzmvJuc5XEzJH9w1o2O472gHaaHyy3b81bbgju5KErQDuTlPEHzBFVxqGwrTGTHtfjYSrcErWNw8%2bPDNRHtspafFKfPxcP8AuuC3nVHxOuH4rNW42HZQeT/yS3ZVdo5rP//Z' /%3e%3c/svg%3e"},"path":"/blog/2019-07-16-puppeteer-i-headless-browser"}}]}},"context":{}}