{"data":{"posts":{"totalCount":9,"pageInfo":{"totalPages":2,"currentPage":2,"isFirst":false,"isLast":true},"edges":[{"node":{"title":"Jak ugryźć code review?","date":"12 lipca, 2019","description":"W zamierzchłych czasach, gdy zaczynałem programować i pisałem swoje pierwsze projekty, bałem się przedstawić kawałek swojego kodu w obawie, że będzie kiepski i zostanę wyśmiany. Code review napawało mnie strachem przed tym że zbłaźnię się pokazując swój projekt. Często też tłumaczyłem swój strach wmawiając sobie, że przecież jestem dobrym programistą, a mój kod jest nie tylko czytelny dla drugiej osoby, ale też używam dobrych praktyk programując. Nie wszystko okazało się prawdą z perspektywy czasu, a ściślej biorąc nic.","image":{"type":"image","mimeType":"image/jpeg","src":"/assets/static/audit-3737447_1920.0b85c65.40f4f88.jpg","size":{"width":1920,"height":1413},"sizes":"(max-width: 1920px) 100vw, 1920px","srcset":["/assets/static/audit-3737447_1920.1b91758.40f4f88.jpg 480w","/assets/static/audit-3737447_1920.3df3210.40f4f88.jpg 1024w","/assets/static/audit-3737447_1920.0b85c65.40f4f88.jpg 1920w"],"dataUri":"data:image/svg+xml,%3csvg fill='none' viewBox='0 0 1920 1413' xmlns='http://www.w3.org/2000/svg' xmlns:xlink='http://www.w3.org/1999/xlink'%3e%3cdefs%3e%3cfilter id='__svg-blur-1'%3e%3cfeGaussianBlur in='SourceGraphic' stdDeviation='40'/%3e%3c/filter%3e%3c/defs%3e%3cimage x='0' y='0' filter='url(%23__svg-blur-1)' width='1920' height='1413' xlink:href='data:image/jpeg%3bbase64%2c/9j/2wBDAAYEBQYFBAYGBQYHBwYIChAKCgkJChQODwwQFxQYGBcUFhYaHSUfGhsjHBYWICwgIyYnKSopGR8tMC0oMCUoKSj/2wBDAQcHBwoIChMKChMoGhYaKCgoKCgoKCgoKCgoKCgoKCgoKCgoKCgoKCgoKCgoKCgoKCgoKCgoKCgoKCgoKCgoKCj/wAARCAAvAEADASIAAhEBAxEB/8QAGwABAAMAAwEAAAAAAAAAAAAAAAUGBwIDCAT/xAAuEAACAQMCBQMEAAcAAAAAAAABAgMABBEFMQYSIUFRBxMyFCJhgQgVJTVSYnH/xAAZAQADAQEBAAAAAAAAAAAAAAAAAwUCAQb/xAAiEQACAgICAgIDAAAAAAAAAAAAAQIDBBEhMRJBBVETFbH/2gAMAwEAAhEDEQA/AJylKU48iKUpQApSlAClKUAKUpQB92jaVc6xe/S2QQy8hf725RgY7/upa%2b4N1Sws5ru9eyt7aFDJJLJOAqKNyTjapb0vsJl1gXrYWIwuqg7nqOv/ADpVp9RCsel2Fzc/2611C3nvc7CJW%2bTf6q3Ix8BSe1L80%2bivjfHxnWpWJpv%2bGRNYapHb/V3GjalBpu5vJIQEVf8ANkBMir3yU6DqcVyvrV7K5MMjRuQqsGicOrBgGBBG4IIrf5bmCC0a5mmjjt0QyNKzAIqgZLFtsY65rzpa8stsLm2H9PneSWzI6qLdnYxAHbohXp2GB2rqlvsxmYcKYKUN9nZSlK2SwTgZO1V7g71A4T1Tjp9B1S6e3tnAjt77mAhefPxY9l7BtifHQ1nPq9x5IZbjQNJZo1UlLubqCx7xr%2bPJ77bb1f0x4Kbiq/ee6bk0y2Ye9yn7pCeoQeM9z4/NYk98IqY2NCuH5r%2bvo9yaU/t69/LrSZI7uFGDKOqqox%2bvGKucUTC39u4f3iQQxZRg57Y8VkfpUiQ8SJHGAsaWzqoHYDlwK1/nXzSK6FVwmytVmSy4ecklz6K2nAvDaSKw0yMxI3Otu0jmBT5EJb2x%2blqgQ8MQ6Dr%2bp2eizxDTnn5pdLkXEaKwDFo8fE5Y9MY7eDWx86%2baxbj9iOL79kYggpgg4PwWuW0K5a3poZ%2byngJyik1Lhp%2b0R3FdjDoAtri4uIobS7m9iAyyBS0mCeQZ323qOrGP4iZeIdR1uz1DVriObS1QW9kkf2rDgAsCufkcZLd%2bm2AK4emnqXJC8Gk8Qu8sTERwXWCzKdgr9yPzuPz2dXuKUZPbIuTiwsTux%2bn6%2bj//2Q==' /%3e%3c/svg%3e"},"path":"/blog/2019-07-12-jak-ugryzc-code-review"}},{"node":{"title":"Wykorzystanie generatorów stron statycznych.","date":"9 lipca, 2019","description":"Każdy chyba kojarzy stronę na której  po wejściu otrzymujemy  nawigację, treść, która nie ulega zmianie i stopkę. Stronę bez formularzy, bez logowania  i która nie zmienia swojego wyglądu dynamicznie. Jednym słowem zwykła strona, która może posłużyć na przykład jako bardzo prosta wizytówka  firmy.  Pierwsza strona internetowa, która powstała w sierpniu 1991 roku za sprawą Tima-Bernersa-Lee  była właśnie ową stroną statyczną.","image":{"type":"image","mimeType":"image/jpeg","src":"/assets/static/engine-3480737_1920.0b85c65.b087b0b.jpg","size":{"width":1920,"height":1280},"sizes":"(max-width: 1920px) 100vw, 1920px","srcset":["/assets/static/engine-3480737_1920.1b91758.b087b0b.jpg 480w","/assets/static/engine-3480737_1920.3df3210.b087b0b.jpg 1024w","/assets/static/engine-3480737_1920.0b85c65.b087b0b.jpg 1920w"],"dataUri":"data:image/svg+xml,%3csvg fill='none' viewBox='0 0 1920 1280' xmlns='http://www.w3.org/2000/svg' xmlns:xlink='http://www.w3.org/1999/xlink'%3e%3cdefs%3e%3cfilter id='__svg-blur-7'%3e%3cfeGaussianBlur in='SourceGraphic' stdDeviation='40'/%3e%3c/filter%3e%3c/defs%3e%3cimage x='0' y='0' filter='url(%23__svg-blur-7)' width='1920' height='1280' xlink:href='data:image/jpeg%3bbase64%2c/9j/2wBDAAYEBQYFBAYGBQYHBwYIChAKCgkJChQODwwQFxQYGBcUFhYaHSUfGhsjHBYWICwgIyYnKSopGR8tMC0oMCUoKSj/2wBDAQcHBwoIChMKChMoGhYaKCgoKCgoKCgoKCgoKCgoKCgoKCgoKCgoKCgoKCgoKCgoKCgoKCgoKCgoKCgoKCgoKCj/wAARCAArAEADASIAAhEBAxEB/8QAGgAAAgMBAQAAAAAAAAAAAAAABgcDBAUAAv/EADIQAAIBAwQBAwIEBAcAAAAAAAECAwQFEQAGEiExEyJBB1EUMmFxFUKBoRYjNFJikcH/xAAYAQEBAQEBAAAAAAAAAAAAAAAEAwACBf/EACMRAAICAQQCAgMAAAAAAAAAAAECAAMREiExQQQiMlFhcbH/2gAMAwEAAhEDEQA/AEVbLZUXKuhpKNeU0pwB/cnWvuC2Q2iruFvaRmmjkjVefZb2gk9ePOmjuP6YQV9F/H/p9Mz0pU/iKAP74esngTnkP%2bJ7/fQJtIW%2bDdBa%2bCKdEKH0y4VZFH5hy6APjr57Glm/V7jgDjuOrAbYczL25ZJq%2boVUkBiKSFGCgqJVQsqPkdZxjvz8a27HcXpa1YKm0RLRyRcWgMUrgjOQ6tnkhzk5XP7atm82qg3bOlvhVrfWKlPJGrKVBL5ypPR4gjs/OdX9iXv/AA/fK6iNbStQNJ7Yqn3qxDceY6YA4LEg4B8ecajYxsBJHUroI%2bPMkq9wWyjkkqLYZfwtRGPXt9yRnjDqQMnvGcA4kXB77A7GqFivERuNRMYIngc%2b2N1BCKckZKkdZ6yB19tOC/7Q2feqWRQtFStxyJKMLDIPkdEYI8fGk9Lajty/VaRH1o4S3CQAe%2bM9Keus5Heio9VikDn8yWomRXKhqIZI7hRsKcrymh9UhuLp7vby6z48fbVOq3RumaCvgmvFS0NYpWeJfT4MD5AA6XP6Y1Xr1Ms1zQVBlRKepCQysSqKApHBfCnvrx40GNC/Z9PA/pr0KKgR7fyZj9iPH6b36vtszNZ1KicFmZzlcqPONXfqLa6TdNsu1dZqOE3tFjnqqaFBylAOWnjA8nicMB31nvQr9P6tZYYkyTJGSVUHz1rUqK5qDchmopWppR3GydFHXwR/fQ2DLdtMAMahzFVDSSVjFhKjqRkHBIP6d/Oi6awPQGmLenGTH6kFUIiI5SPMefGfno6P59nbf%2bolDVTUai07rVGmMcP%2bnrGxkkR/ysfnjjvvvQBs%2b5T7b3FJt%2b7N%2bIs1XIKaspXJ4Bj0sig%2bGUkdj9dJZzYMqeOp3XYPqGluulVOkdPHFA3CNRyUBsYIGCRgAZ/870Hbj9UblJDqtU5Kfh2PL3A/lI8fb9NT01PVW%2b/1qUUjPNSSPBM5lMcKqGyvMnznGcD/ALOvN8oayaFqumSaarB9d3WMxJwP8yq3bDkPzEjODgH4HXWtb5HBETc2tNIhpc/paKS2JcHuSrBU00r1aJGZJIgyqG4f7wuM96VO4ds/weo9BuNTG3uSqpyWV0PgkfBPXR%2b%2biyyb1ray0S2muqHxI/ONy2Gik8EZ%2bzfI1DdWjNLTU9PdeBqA6BGbi8BAHsc/zL9j8aqjXVPhjtIpUrocncQS2rdWttyikDEAN3ot3HVQPVrUK5lOQ5B66%2b2lspIkGPvrblkdokLMSeGNNtqDMGh1OIc3StitG6Fe1vLHQzRx1NM3I5jDDOA36MCNe90RUm5SLzF6dPuKEq8ik8Y6/jjDD4WToZ%2bG/fQ6rtLZbeZDyIgmTv7BgQP6EnWXNUzfhYv8xvvo1dZPe42/co4CEERw3Km2vtPbobcM9bW3iqQs9TESeEzjkfTB6XjnonOlZed0S3OhWmQPHTQxrDCjOWbgpOMk9k9kn99Wd6XStaTDTlgQjdgHvgP00Eq7M7EkknW8Tx/XW%2b5ndraMATo5WgkJyez3q5LU/iiGl9zgYJ%2bSNZ0592ujJGMHXolc7wwbBn//2Q==' /%3e%3c/svg%3e"},"path":"/blog/2019-07-09-wykorzystanie-generatorow-stron-statycznych"}},{"node":{"title":"Technologie z których korzystam.","date":"7 lipca, 2019","description":"Dzisiejszym tematem przewodnim są technologie z których korzystam podczas pisania swoich projektów. Moim celem na tą chwilę jest przybliżenie tego czym się zajmuję programując własne projekty i przede wszystkim dlaczego wybrałem te, a nie inne technologie? Pisząc obecnie posty mam zamiar po prostu przedstawić jakieś podstawowe informacje na mój temat i tego co robię.","image":{"type":"image","mimeType":"image/jpeg","src":"/assets/static/office-1209640_1920.0b85c65.da7ba2a.jpg","size":{"width":1920,"height":1281},"sizes":"(max-width: 1920px) 100vw, 1920px","srcset":["/assets/static/office-1209640_1920.1b91758.da7ba2a.jpg 480w","/assets/static/office-1209640_1920.3df3210.da7ba2a.jpg 1024w","/assets/static/office-1209640_1920.0b85c65.da7ba2a.jpg 1920w"],"dataUri":"data:image/svg+xml,%3csvg fill='none' viewBox='0 0 1920 1281' xmlns='http://www.w3.org/2000/svg' xmlns:xlink='http://www.w3.org/1999/xlink'%3e%3cdefs%3e%3cfilter id='__svg-blur-13'%3e%3cfeGaussianBlur in='SourceGraphic' stdDeviation='40'/%3e%3c/filter%3e%3c/defs%3e%3cimage x='0' y='0' filter='url(%23__svg-blur-13)' width='1920' height='1281' xlink:href='data:image/jpeg%3bbase64%2c/9j/2wBDAAYEBQYFBAYGBQYHBwYIChAKCgkJChQODwwQFxQYGBcUFhYaHSUfGhsjHBYWICwgIyYnKSopGR8tMC0oMCUoKSj/2wBDAQcHBwoIChMKChMoGhYaKCgoKCgoKCgoKCgoKCgoKCgoKCgoKCgoKCgoKCgoKCgoKCgoKCgoKCgoKCgoKCgoKCj/wAARCAArAEADASIAAhEBAxEB/8QAGwAAAgIDAQAAAAAAAAAAAAAABQYEBwECAwj/xAA3EAACAQMCBAQCCAUFAAAAAAABAgMEBREAIQYSMVETIkFhB5EUJDJCYnGBoRUjNEOxcpKi0eH/xAAYAQEBAQEBAAAAAAAAAAAAAAADAgQBBf/EACARAAICAwACAwEAAAAAAAAAAAABAhEDEiExQQQygfD/2gAMAwEAAhEDEQA/AE/hgVCor1KRrToQjoo3TJ2bPbOB%2bumm0UEd4v8AX21rlU07RBXWONzHsR6YAJ3x6%2busUVLHHSiSnjSriziemYncDqNvTSvHWXNeN4rvRW%2bUwREQ1EaEsqpvtnqfLg576fVRak/AE24x1XS/bTbYbZT09J4zVDpGCXdSD1O2fX88576YKfw1A8o1XMnGFIbvRW2kleqdGBlljwUSNhuzN7bHHXbTTQXehqp0hp66N3Y4UcrDJ%2bWplHoNNqxhlMbDoNCqyGNzgJknYADrrq7xKOVqyAzEgCJWBJJ6Ab6iXGrntVVAiqXkn8kMkYDh27A%2bh/zvqNkhIYpN0C%2bJWi4fstRNzKtVKvKcYymR0/7/APNJhp7fNTPc55x47USusiDeFMBeVfxMdj7A6m8UcP36%2b3QpdaWWCjjP9vztN/pI6DvncfvqDHZFlqoaCNHpqJUHivhgiIhJwe5JOAO%2b%2bkhJLhbjSBFiSSW5JTU78jtuD2HqffRy6iKO60b08iQUcX1eomJ5QQx2kJ7K3U9mOhsF0hiVnjijSTGGwMZHbUuqrYKy3nxAYqeReQqqeVh0I6eo0e1rVmrR3aMw8FXCOpkpOH6i3NBUyliREJASd93Vt1H7aPW3gjiyyVyVsVTaqiMIwkjigbxFyMeXmbGffrjONa8DcQnhq3GGvt00lTCvLEsSkuYTur8iqTkjAPTce%2bmCo%2bKMEIQyWK8Ybf8Ap32/46lbvhmyOMWuL%2b/RSp%2bEuKRV/Saa0UUM7lQ1RVznIULjHKBseu476N2XgriWhYzT8TU9PGKo1jRR0eY1bGCPMwwuO2NyTorZviTFeJpIoLHcomiAP1hPD5vyyN9TrjxZW0680NjlcHr/ADlGufXh2U8mXvo61d2Ecs8LMkkf2fFEgwwPt6dtKHGfETU8ccQpqypSVxGPBUEJsTnlHy37aWb/AMTc95mnqIHoefzCN12XupIADD89SkqYbvasTMrxyDOQ3Jgf51Lm14NmP48OP2LduQVUcjsq%2bX7R230fjuFHQ0K19yI%2bjUoPhxYwGI6HHrpZpJGWmp%2bU8uWGcDGdCPifPL4MkfOfDDhQvpjSR8hZpaQbGH4cX64VEvFvFFVM4jEXli%2b60m/hr%2bnb8WsDjziJS6/xaUKrTDmCJnEaDf7Pq2dROGwIfhLTeGOXxrmgkx97Djr/ALR8tJquwolOTk0U7Z9zIcnTo822ootO1fEW7oeSurxIfpFIq80AJZWALjIwFyM7kH2xq4qioVWYcwG5A315VrvLDIw689Of1EZ16JrXYxxEkkkb/Ia40i4qze7pT1UUkU4jkjcFWV8EEH0OkjiDggQW1a7hl3iCDD0rOWT3xncH9tG6pjvvorwjK7XQQsxMT0zsynoSrKAf3OpaRoVwVpn/2Q==' /%3e%3c/svg%3e"},"path":"/blog/2019-07-07-technologie-ktore-wykorzystuje"}},{"node":{"title":"Start mojego bloga i  pierwsze posty.","date":"2 lipca, 2019","description":"Trudno powiedzieć co mnie skłoniło do blogowania? Pewnie to że od zawsze lubiłem wyrażać swoje myśli, pragnienia i nadzieje pisząc. Pisanie swoich dzienników z podóży zawsze sprawiało mi frajdę, zawsze będąc daleko od domu spisywałem każdy pojedynczy dzień jaki przeżyłem","image":{"type":"image","mimeType":"image/jpeg","src":"/assets/static/sergei-akulich-457851-unsplash.09b17d9.50585b6.jpg","size":{"width":2560,"height":1440},"sizes":"(max-width: 2560px) 100vw, 2560px","srcset":["/assets/static/sergei-akulich-457851-unsplash.1b91758.50585b6.jpg 480w","/assets/static/sergei-akulich-457851-unsplash.3df3210.50585b6.jpg 1024w","/assets/static/sergei-akulich-457851-unsplash.0b85c65.50585b6.jpg 1920w","/assets/static/sergei-akulich-457851-unsplash.09b17d9.50585b6.jpg 2560w"],"dataUri":"data:image/svg+xml,%3csvg fill='none' viewBox='0 0 2560 1440' xmlns='http://www.w3.org/2000/svg' xmlns:xlink='http://www.w3.org/1999/xlink'%3e%3cdefs%3e%3cfilter id='__svg-blur-16'%3e%3cfeGaussianBlur in='SourceGraphic' stdDeviation='40'/%3e%3c/filter%3e%3c/defs%3e%3cimage x='0' y='0' filter='url(%23__svg-blur-16)' width='2560' height='1440' xlink:href='data:image/jpeg%3bbase64%2c/9j/2wBDAAYEBQYFBAYGBQYHBwYIChAKCgkJChQODwwQFxQYGBcUFhYaHSUfGhsjHBYWICwgIyYnKSopGR8tMC0oMCUoKSj/2wBDAQcHBwoIChMKChMoGhYaKCgoKCgoKCgoKCgoKCgoKCgoKCgoKCgoKCgoKCgoKCgoKCgoKCgoKCgoKCgoKCgoKCj/wAARCAAkAEADASIAAhEBAxEB/8QAHAAAAQUBAQEAAAAAAAAAAAAABQADBAYHCAIB/8QALhAAAgEDAwMCBgAHAAAAAAAAAQIDAAQRBRIhBjFBE1EHFCJhcYEjMkKRscHh/8QAGQEAAgMBAAAAAAAAAAAAAAAAAQMAAgQF/8QAHxEAAgICAgMBAAAAAAAAAAAAAQIAAxExEiEEIjJB/9oADAMBAAIRAxEAPwDn/Rb%2b308wSfJxz3aSo8cjSnaNrZwyec/kV2J0jfjWtEs7/bGjzIGdEcPsPsSPP2rjbTIXvLq2tbO0kuLlnIjjTcS5P2B/xXRl1rV30V8IoI2tLaw1FUEXpxEfSWbvjy2Mkn3pV9TPjjKUWqhPLU123MckaPGwZGGQR2IqSuKxX4QdbT3mltYOVuBaINqsQrhckYB8%2bO9WzUurGm3w215bWDxEeqxlVm57AZHFZj49wbAmkXUsvLM0RQM4803DLDcwJNA6yQuMq6nIIrFrnr2fQUWG3uZZ4o775aX1Ru7YZtpPIzu816bru3g%2bG%2bn29lOIb1bj03AbBCt6hHHPtS7kur0MxlRqs/cTYZgpHGKpXXnUNnotjJbSyyR3tzbTvb7B5Rc9/B54qoaR8W9Ng6bsBIWur2HZDcJna20A5Ye5wB/es3%2bJfWh6g1mzu4FMUa2bxrx5JbP%2bhV6fGtdvcYEXd5FSL6HJmaafNNA%2b%2b3MqkDlk4NGLq%2bvtQsJFl%2bauZWkVmkfc5AAPHPbvQq0tp5GVUOzPnPijmmQ3sV1GV3zqHAPoP9TfjzXRDAHc5DHvqeelEupNUt4bWN3nkYqqK%2bwngnuSPano9Q9LVSPR5YBWy/8AUCex8f8AKIa9Dd6hMLhdLuLN2wCoiLBiO7Z8E1EutL1KO2y9uzA/y7wMr%2bhTA8qVOTiRLq4neAyTTllM5cknJ3MPJ8nAoXe3UksSIZHzEAME8dzRKy0vU3mKJalmf3ITj90I1GyubO5CXCBWbtghhn247H7UCeUKAjcc0i4QT7HCZcnLsOR%2b/aptwEOSjbh9%2b/4xQSIFJxvUg57e9TJGSNcwsd/cg8858VA2BBYmWyJEhkdCGVj%2bKsGnXs8UCSKwJxkZGcfilSoACaB0epe9OnkvFikndiGAbZk7RX27/hS/T2Ldj470qVRNxr/Ij0hSXTw8kUbEOOGGR2%2b9Cb62hlIdo1w3dQOKVKmpuJu%2bZQtchW1vmjiLBcDGT2oa7HtnilSpbblVHQn/2Q==' /%3e%3c/svg%3e"},"path":"/blog/2019-07-02-moj-pierwszy-post"}}]}},"context":{}}