{"data":{"posts":{"totalCount":7,"pageInfo":{"totalPages":2,"currentPage":2,"isFirst":false,"isLast":true},"edges":[{"node":{"title":"Technologie z których korzystam.","date":"7 lipca, 2019","description":"Dzisiejszym tematem przewodnim są technologie z których korzystam podczas pisania swoich projektów. Moim celem na tą chwilę jest przybliżenie tego czym się zajmuję programując własne projekty i przede wszystkim dlaczego wybrałem te, a nie inne technologie? Pisząc obecnie posty mam zamiar po prostu przedstawić jakieś podstawowe informacje na mój temat i tego co robię.","image":{"type":"image","mimeType":"image/jpeg","src":"/assets/static/office-1209640_1920.0b85c65.da7ba2a.jpg","size":{"width":1920,"height":1281},"sizes":"(max-width: 1920px) 100vw, 1920px","srcset":["/assets/static/office-1209640_1920.1b91758.da7ba2a.jpg 480w","/assets/static/office-1209640_1920.3df3210.da7ba2a.jpg 1024w","/assets/static/office-1209640_1920.0b85c65.da7ba2a.jpg 1920w"],"dataUri":"data:image/svg+xml,%3csvg fill='none' viewBox='0 0 1920 1281' xmlns='http://www.w3.org/2000/svg' xmlns:xlink='http://www.w3.org/1999/xlink'%3e%3cdefs%3e%3cfilter id='__svg-blur-8'%3e%3cfeGaussianBlur in='SourceGraphic' stdDeviation='40'/%3e%3c/filter%3e%3c/defs%3e%3cimage x='0' y='0' filter='url(%23__svg-blur-8)' width='1920' height='1281' xlink:href='data:image/jpeg%3bbase64%2c/9j/2wBDAAYEBQYFBAYGBQYHBwYIChAKCgkJChQODwwQFxQYGBcUFhYaHSUfGhsjHBYWICwgIyYnKSopGR8tMC0oMCUoKSj/2wBDAQcHBwoIChMKChMoGhYaKCgoKCgoKCgoKCgoKCgoKCgoKCgoKCgoKCgoKCgoKCgoKCgoKCgoKCgoKCgoKCgoKCj/wAARCAArAEADASIAAhEBAxEB/8QAGwAAAgIDAQAAAAAAAAAAAAAABQYEBwECAwj/xAA3EAACAQMCBAQCCAUFAAAAAAABAgMEBREAIQYSMVETIkFhB5EUJDJCYnGBoRUjNEOxcpKi0eH/xAAYAQEBAQEBAAAAAAAAAAAAAAADAgQBBf/EACARAAICAwACAwEAAAAAAAAAAAABAhEDEiExQQQygfD/2gAMAwEAAhEDEQA/AE/hgVCor1KRrToQjoo3TJ2bPbOB%2bumm0UEd4v8AX21rlU07RBXWONzHsR6YAJ3x6%2busUVLHHSiSnjSriziemYncDqNvTSvHWXNeN4rvRW%2bUwREQ1EaEsqpvtnqfLg576fVRak/AE24x1XS/bTbYbZT09J4zVDpGCXdSD1O2fX88576YKfw1A8o1XMnGFIbvRW2kleqdGBlljwUSNhuzN7bHHXbTTQXehqp0hp66N3Y4UcrDJ%2bWplHoNNqxhlMbDoNCqyGNzgJknYADrrq7xKOVqyAzEgCJWBJJ6Ab6iXGrntVVAiqXkn8kMkYDh27A%2bh/zvqNkhIYpN0C%2bJWi4fstRNzKtVKvKcYymR0/7/APNJhp7fNTPc55x47USusiDeFMBeVfxMdj7A6m8UcP36%2b3QpdaWWCjjP9vztN/pI6DvncfvqDHZFlqoaCNHpqJUHivhgiIhJwe5JOAO%2b%2bkhJLhbjSBFiSSW5JTU78jtuD2HqffRy6iKO60b08iQUcX1eomJ5QQx2kJ7K3U9mOhsF0hiVnjijSTGGwMZHbUuqrYKy3nxAYqeReQqqeVh0I6eo0e1rVmrR3aMw8FXCOpkpOH6i3NBUyliREJASd93Vt1H7aPW3gjiyyVyVsVTaqiMIwkjigbxFyMeXmbGffrjONa8DcQnhq3GGvt00lTCvLEsSkuYTur8iqTkjAPTce%2bmCo%2bKMEIQyWK8Ybf8Ap32/46lbvhmyOMWuL%2b/RSp%2bEuKRV/Saa0UUM7lQ1RVznIULjHKBseu476N2XgriWhYzT8TU9PGKo1jRR0eY1bGCPMwwuO2NyTorZviTFeJpIoLHcomiAP1hPD5vyyN9TrjxZW0680NjlcHr/ADlGufXh2U8mXvo61d2Ecs8LMkkf2fFEgwwPt6dtKHGfETU8ccQpqypSVxGPBUEJsTnlHy37aWb/AMTc95mnqIHoefzCN12XupIADD89SkqYbvasTMrxyDOQ3Jgf51Lm14NmP48OP2LduQVUcjsq%2bX7R230fjuFHQ0K19yI%2bjUoPhxYwGI6HHrpZpJGWmp%2bU8uWGcDGdCPifPL4MkfOfDDhQvpjSR8hZpaQbGH4cX64VEvFvFFVM4jEXli%2b60m/hr%2bnb8WsDjziJS6/xaUKrTDmCJnEaDf7Pq2dROGwIfhLTeGOXxrmgkx97Djr/ALR8tJquwolOTk0U7Z9zIcnTo822ootO1fEW7oeSurxIfpFIq80AJZWALjIwFyM7kH2xq4qioVWYcwG5A315VrvLDIw689Of1EZ16JrXYxxEkkkb/Ia40i4qze7pT1UUkU4jkjcFWV8EEH0OkjiDggQW1a7hl3iCDD0rOWT3xncH9tG6pjvvorwjK7XQQsxMT0zsynoSrKAf3OpaRoVwVpn/2Q==' /%3e%3c/svg%3e"},"path":"/blog/2019-07-07-technologie-ktore-wykorzystuje"}},{"node":{"title":"Start mojego bloga i  pierwsze posty.","date":"2 lipca, 2019","description":"Trudno powiedzieć co mnie skłoniło do blogowania? Pewnie to że od zawsze lubiłem wyrażać swoje myśli, pragnienia i nadzieje pisząc. Pisanie swoich dzienników z podóży zawsze sprawiało mi frajdę, zawsze będąc daleko od domu spisywałem każdy pojedynczy dzień jaki przeżyłem","image":{"type":"image","mimeType":"image/jpeg","src":"/assets/static/sergei-akulich-457851-unsplash.09b17d9.50585b6.jpg","size":{"width":2560,"height":1440},"sizes":"(max-width: 2560px) 100vw, 2560px","srcset":["/assets/static/sergei-akulich-457851-unsplash.1b91758.50585b6.jpg 480w","/assets/static/sergei-akulich-457851-unsplash.3df3210.50585b6.jpg 1024w","/assets/static/sergei-akulich-457851-unsplash.0b85c65.50585b6.jpg 1920w","/assets/static/sergei-akulich-457851-unsplash.09b17d9.50585b6.jpg 2560w"],"dataUri":"data:image/svg+xml,%3csvg fill='none' viewBox='0 0 2560 1440' xmlns='http://www.w3.org/2000/svg' xmlns:xlink='http://www.w3.org/1999/xlink'%3e%3cdefs%3e%3cfilter id='__svg-blur-13'%3e%3cfeGaussianBlur in='SourceGraphic' stdDeviation='40'/%3e%3c/filter%3e%3c/defs%3e%3cimage x='0' y='0' filter='url(%23__svg-blur-13)' width='2560' height='1440' xlink:href='data:image/jpeg%3bbase64%2c/9j/2wBDAAYEBQYFBAYGBQYHBwYIChAKCgkJChQODwwQFxQYGBcUFhYaHSUfGhsjHBYWICwgIyYnKSopGR8tMC0oMCUoKSj/2wBDAQcHBwoIChMKChMoGhYaKCgoKCgoKCgoKCgoKCgoKCgoKCgoKCgoKCgoKCgoKCgoKCgoKCgoKCgoKCgoKCgoKCj/wAARCAAkAEADASIAAhEBAxEB/8QAHAAAAQUBAQEAAAAAAAAAAAAABQADBAYHCAIB/8QALhAAAgEDAwMCBgAHAAAAAAAAAQIDAAQRBRIhBjFBE1EHFCJhcYEjMkKRscHh/8QAGQEAAgMBAAAAAAAAAAAAAAAAAQMAAgQF/8QAHxEAAgICAgMBAAAAAAAAAAAAAQIAAxExEiEEIjJB/9oADAMBAAIRAxEAPwDn/Rb%2b308wSfJxz3aSo8cjSnaNrZwyec/kV2J0jfjWtEs7/bGjzIGdEcPsPsSPP2rjbTIXvLq2tbO0kuLlnIjjTcS5P2B/xXRl1rV30V8IoI2tLaw1FUEXpxEfSWbvjy2Mkn3pV9TPjjKUWqhPLU123MckaPGwZGGQR2IqSuKxX4QdbT3mltYOVuBaINqsQrhckYB8%2bO9WzUurGm3w215bWDxEeqxlVm57AZHFZj49wbAmkXUsvLM0RQM4803DLDcwJNA6yQuMq6nIIrFrnr2fQUWG3uZZ4o775aX1Ru7YZtpPIzu816bru3g%2bG%2bn29lOIb1bj03AbBCt6hHHPtS7kur0MxlRqs/cTYZgpHGKpXXnUNnotjJbSyyR3tzbTvb7B5Rc9/B54qoaR8W9Ng6bsBIWur2HZDcJna20A5Ye5wB/es3%2bJfWh6g1mzu4FMUa2bxrx5JbP%2bhV6fGtdvcYEXd5FSL6HJmaafNNA%2b%2b3MqkDlk4NGLq%2bvtQsJFl%2bauZWkVmkfc5AAPHPbvQq0tp5GVUOzPnPijmmQ3sV1GV3zqHAPoP9TfjzXRDAHc5DHvqeelEupNUt4bWN3nkYqqK%2bwngnuSPano9Q9LVSPR5YBWy/8AUCex8f8AKIa9Dd6hMLhdLuLN2wCoiLBiO7Z8E1EutL1KO2y9uzA/y7wMr%2bhTA8qVOTiRLq4neAyTTllM5cknJ3MPJ8nAoXe3UksSIZHzEAME8dzRKy0vU3mKJalmf3ITj90I1GyubO5CXCBWbtghhn247H7UCeUKAjcc0i4QT7HCZcnLsOR%2b/aptwEOSjbh9%2b/4xQSIFJxvUg57e9TJGSNcwsd/cg8858VA2BBYmWyJEhkdCGVj%2bKsGnXs8UCSKwJxkZGcfilSoACaB0epe9OnkvFikndiGAbZk7RX27/hS/T2Ldj470qVRNxr/Ij0hSXTw8kUbEOOGGR2%2b9Cb62hlIdo1w3dQOKVKmpuJu%2bZQtchW1vmjiLBcDGT2oa7HtnilSpbblVHQn/2Q==' /%3e%3c/svg%3e"},"path":"/blog/2019-07-02-moj-pierwszy-post"}}]}},"context":{}}